[
  {"id": 1, "author": "Pete Hunt", "text": "This is one comment"},
  {"id": 2, "author": "Jordan Walke", "text": "This is *another* comment"},
  {"id": 3, "author": "Carlos", "text": "This other comment by Carlos"}
]